<svg viewBox="0 0 100 100" xmlns="http://www.w3.org/2000/svg">
      <line x1="0" y1="0" x2="0" y2="80" stroke="black" opacity="0.15" stroke-width="2" />
    <line x1="20" y1="0" x2="20" y2="80" stroke="black" opacity="0.15" stroke-width="2" />
    <line x1="40" y1="0" x2="40" y2="80" stroke="black" opacity="0.15" stroke-width="2" />
    <line x1="60" y1="0" x2="60" y2="80" stroke="black" opacity="0.15" stroke-width="2" />
    <line x1="80" y1="0" x2="80" y2="100" stroke="black" opacity="0.15" stroke-width="2" />
</svg>